{
  "images": [
    {
      "id": 1,
      "title": "Archibald",
      "imageUrl": "https://cdn.pixabay.com/photo/2015/05/31/16/03/teddy-bear-792273_1280.jpg",
      "createdDate": "Mon Dec 13 2021 14:51:42 GMT+0100 (Central European Standard Time)",
      "clicks": 89,
      "location": "Paris"
    },
    {
      "id": 2,
      "title": "Three Rock Mountain",
      "imageUrl": "https://upload.wikimedia.org/wikipedia/commons/thumb/0/08/Three_Rock_Mountain_Southern_Tor.jpg/2880px-Three_Rock_Mountain_Southern_Tor.jpg",
      "createdDate": "Mon Dec 13 2021 14:51:42 GMT+0100 (Central European Standard Time)",
      "clicks": 6,
      "location": "la montagne"
    },
    {
      "id": 3,
      "title": "Un bon repas",
      "imageUrl": "https://wtop.com/wp-content/uploads/2020/06/HEALTHYFRESH.jpg",
      "createdDate": "Mon Dec 13 2021 14:51:42 GMT+0100 (Central European Standard Time)",
      "clicks": 156
    },
    {
      "id": 4,
      "title": "Archibald",
      "imageUrl": "https://cdn.pixabay.com/photo/2015/05/31/16/03/teddy-bear-792273_1280.jpg",
      "createdDate": "Mon Dec 13 2021 14:51:42 GMT+0100 (Central European Standard Time)",
      "clicks": 89,
      "location": "Paris"
    },
    {
      "id": 5,
      "title": "Three Rock Mountain",
      "imageUrl": "https://upload.wikimedia.org/wikipedia/commons/thumb/0/08/Three_Rock_Mountain_Southern_Tor.jpg/2880px-Three_Rock_Mountain_Southern_Tor.jpg",
      "createdDate": "Mon Dec 13 2021 14:51:42 GMT+0100 (Central European Standard Time)",
      "clicks": 27,
      "location": "la montagne"
    },
    {
      "id": 6,
      "title": "Un bon repas",
      "imageUrl": "https://wtop.com/wp-content/uploads/2020/06/HEALTHYFRESH.jpg",
      "createdDate": "Mon Dec 13 2021 14:51:42 GMT+0100 (Central European Standard Time)",
      "clicks": 101
    },
    {
      "id": 7,
      "title": "Angular",
      "imageUrl": "https://upload.wikimedia.org/wikipedia/commons/thumb/c/cf/Angular_full_color_logo.svg/640px-Angular_full_color_logo.svg.png",
      "createdDate": "Mon Dec 13 2021 14:51:42 GMT+0100 (Central European Standard Time)",
      "clicks": 20
    },
    {
      "id": 8,
      "title": "OCR",
      "imageUrl": "https://wtop.com/wp-content/uploads/2020/06/HEALTHYFRESH.jpg",
      "createdDate": "Mon Dec 13 2021 14:51:42 GMT+0100 (Central European Standard Time)",
      "clicks": 252,
      "location": "Paris"
    },
    {
      "title": "Logo",
      "imageUrl": "https://upload.wikimedia.org/wikipedia/commons/1/1e/RPC-JP_Logo.png",
      "location": "Everywhere",
      "clicks": 33,
      "createdDate": "2022-04-13T12:10:00.685Z",
      "id": 9
    }
  ]
}